…
- `customized_em.R` runs LMS for FLPS models (but there’s no missing
  data. Missing data could be treated by FIML)

  - `mvtnorm` package is needed for normal density
  - `gaussquad` is needed for Hermite-Gaussian quadrature
  - `nlme::fdHess` is needed to compute Hessian matrix for SE

- `Custom_LMS.RDS` is a result of `customized_em.R`

- `Mplus_LMS.out` is a result of Mplus for benchmark

## Data

    #> # A tibble: 1,069 × 6
    #>      x1    x2    x3    x4    x5    y1
    #>   <dbl> <dbl> <dbl> <dbl> <dbl> <dbl>
    #> 1  1.5   1.5   1     3      2   1    
    #> 2  1.75  2     1.67  2.67   1.5 0.778
    #> 3  3.75  3.25  3.67  2      2.5 1.22 
    #> 4  1.5   1.75  2     3.67   3   0.333
    #> 5  3.75  3.25  3     2.33   1.5 0.556
    #> # ℹ 1,064 more rows
…
